{
  "assembly:/_pro/scenes/missions/ancestral/scene_bulldog.entity": [
    "f26550e7-bb18-4faf-90eb-2d70cdf2eda3",
    "19aec70f-5499-480e-b333-63c3a63a1db7",
    "b7ae3305-3950-462a-955c-410887eeb101",
    "c6b00102-ea2f-45ec-91b3-493d633522f4",
    "1f8b00e1-bb33-4e73-a078-687224a5cb3b",
    "fa21bb4d-e803-4bd1-8d96-fb449a1e62db",
    "1ab00f45-9c4f-4827-8151-3b835c0e74c5",
    "f82ca3c6-83dd-4ad7-9aba-c2a7f69e8f23"
  ],
  "assembly:/_pro/scenes/missions/ancestral/scene_smoothsnake.entity": [
    "f26550e7-bb18-4faf-90eb-2d70cdf2eda3",
    "19aec70f-5499-480e-b333-63c3a63a1db7",
    "b7ae3305-3950-462a-955c-410887eeb101",
    "c6b00102-ea2f-45ec-91b3-493d633522f4",
    "1f8b00e1-bb33-4e73-a078-687224a5cb3b",
    "fa21bb4d-e803-4bd1-8d96-fb449a1e62db",
    "1ab00f45-9c4f-4827-8151-3b835c0e74c5",
    "f82ca3c6-83dd-4ad7-9aba-c2a7f69e8f23"
  ],
  "assembly:/_pro/scenes/missions/bangkok/_scene_mission_tiger.entity": [
    "9b4ad6ad-9eed-4014-bd72-6ce4e060e24e",
    "06b72e0a-6819-47e5-b427-aa90232afd16",
    "7623c0ab-7c75-42c3-8839-4bffb15e9f9b",
    "495e7647-9dfe-4e11-bd34-38c5f021068a",
    "08c53143-6bc9-4bf7-a93d-23e123b6cb24",
    "dcd500fe-ec4d-4b93-8866-a2ea35977afd",
    "be1a657b-81b0-4909-b5e3-c93324d1decb",
    "5bca7bb1-6aee-4d8f-96db-102096b99921",
    "9d016e48-d05b-45ce-b58a-bd61e930ac6d"
  ],
  "assembly:/_pro/scenes/missions/bangkok/_scene_tiger.entity": [
    "9b4ad6ad-9eed-4014-bd72-6ce4e060e24e",
    "06b72e0a-6819-47e5-b427-aa90232afd16",
    "7623c0ab-7c75-42c3-8839-4bffb15e9f9b",
    "495e7647-9dfe-4e11-bd34-38c5f021068a",
    "08c53143-6bc9-4bf7-a93d-23e123b6cb24",
    "dcd500fe-ec4d-4b93-8866-a2ea35977afd",
    "be1a657b-81b0-4909-b5e3-c93324d1decb",
    "5bca7bb1-6aee-4d8f-96db-102096b99921",
    "9d016e48-d05b-45ce-b58a-bd61e930ac6d"
  ],
  "assembly:/_pro/scenes/missions/bangkok/scene_zika.entity": [
    "9b4ad6ad-9eed-4014-bd72-6ce4e060e24e",
    "06b72e0a-6819-47e5-b427-aa90232afd16",
    "7623c0ab-7c75-42c3-8839-4bffb15e9f9b",
    "495e7647-9dfe-4e11-bd34-38c5f021068a",
    "08c53143-6bc9-4bf7-a93d-23e123b6cb24",
    "dcd500fe-ec4d-4b93-8866-a2ea35977afd",
    "be1a657b-81b0-4909-b5e3-c93324d1decb",
    "5bca7bb1-6aee-4d8f-96db-102096b99921",
    "9d016e48-d05b-45ce-b58a-bd61e930ac6d"
  ],
  "assembly:/_pro/scenes/missions/coastaltown/_scene_copperhead.entity": [
    "ea156a43-2020-4fee-b726-a5d01c2b0cc2"
  ],
  "assembly:/_pro/scenes/missions/coastaltown/_scene_mamba.entity": [
    "ad047285-a0c9-438d-b1e0-211ecbe47bda"
  ],
  "assembly:/_pro/scenes/missions/coastaltown/_scene_mission_copperhead.entity": [
    "ea156a43-2020-4fee-b726-a5d01c2b0cc2"
  ],
  "assembly:/_pro/scenes/missions/coastaltown/_scene_mission_mamba.entity": [
    "ad047285-a0c9-438d-b1e0-211ecbe47bda"
  ],
  "assembly:/_pro/scenes/missions/coastaltown/_scene_octopus.entity": [
    "da03abc6-a83f-41b8-913f-9d5c42d852b4",
    "278d5e01-6875-4c2d-93e5-78cc5dd847c3",
    "8cf3155c-82c2-4024-bcb9-7a2eaf014884",
    "4e3bd619-b23e-4b01-b639-c5e1cde46d7b",
    "9bd24d10-938c-467a-844b-e34878f1ba29",
    "e9c2f7ba-2d52-47a2-99b2-d14eba6d5278",
    "3d2f0e03-3802-4c32-b99c-81b8f84e8712",
    "26d0b2eb-2f48-463b-8eeb-8cb49b4d3b1c"
  ],
  "assembly:/_pro/scenes/missions/coastaltown/mission01.entity": [
    "da03abc6-a83f-41b8-913f-9d5c42d852b4",
    "278d5e01-6875-4c2d-93e5-78cc5dd847c3",
    "8cf3155c-82c2-4024-bcb9-7a2eaf014884",
    "4e3bd619-b23e-4b01-b639-c5e1cde46d7b",
    "9bd24d10-938c-467a-844b-e34878f1ba29",
    "e9c2f7ba-2d52-47a2-99b2-d14eba6d5278",
    "3d2f0e03-3802-4c32-b99c-81b8f84e8712",
    "26d0b2eb-2f48-463b-8eeb-8cb49b4d3b1c"
  ],
  "assembly:/_pro/scenes/missions/coastaltown/scene_ebola.entity": [
    "8cf3155c-82c2-4024-bcb9-7a2eaf014884",
    "e9c2f7ba-2d52-47a2-99b2-d14eba6d5278"
  ],
  "assembly:/_pro/scenes/missions/colombia/mission_millipede/scene_millipede.entity": [
    "c97620fa-711b-4cf0-97a2-a262f24dccdb",
    "b9321450-f36a-424a-9739-b0c8d7f42d83",
    "909f5200-77df-4ea5-8327-02c775137c14",
    "2bcd53b1-b7dd-40ec-90a6-fe797f6496be",
    "3fbae47b-151d-477f-b9e8-5c7c2a5e3ce0",
    "b32e6139-3ce0-46cf-99b9-b3276abc93fb",
    "4f0f96fb-9cc4-4a6d-bd3d-9ce8cb247d89",
    "9c444ee8-a86e-4bdb-8f4d-09071bc48442"
  ],
  "assembly:/_pro/scenes/missions/colombia/scene_anaconda.entity": [
    "c97620fa-711b-4cf0-97a2-a262f24dccdb",
    "b9321450-f36a-424a-9739-b0c8d7f42d83",
    "909f5200-77df-4ea5-8327-02c775137c14",
    "2bcd53b1-b7dd-40ec-90a6-fe797f6496be",
    "3fbae47b-151d-477f-b9e8-5c7c2a5e3ce0",
    "b32e6139-3ce0-46cf-99b9-b3276abc93fb",
    "4f0f96fb-9cc4-4a6d-bd3d-9ce8cb247d89",
    "9c444ee8-a86e-4bdb-8f4d-09071bc48442"
  ],
  "assembly:/_pro/scenes/missions/colombia/scene_hippo.entity": [
    "c97620fa-711b-4cf0-97a2-a262f24dccdb",
    "b9321450-f36a-424a-9739-b0c8d7f42d83",
    "909f5200-77df-4ea5-8327-02c775137c14",
    "2bcd53b1-b7dd-40ec-90a6-fe797f6496be",
    "3fbae47b-151d-477f-b9e8-5c7c2a5e3ce0",
    "b32e6139-3ce0-46cf-99b9-b3276abc93fb",
    "4f0f96fb-9cc4-4a6d-bd3d-9ce8cb247d89",
    "9c444ee8-a86e-4bdb-8f4d-09071bc48442"
  ],
  "assembly:/_pro/scenes/missions/colombia/scene_hippo_calluna.entity": [
    "c97620fa-711b-4cf0-97a2-a262f24dccdb",
    "b9321450-f36a-424a-9739-b0c8d7f42d83",
    "909f5200-77df-4ea5-8327-02c775137c14",
    "2bcd53b1-b7dd-40ec-90a6-fe797f6496be",
    "3fbae47b-151d-477f-b9e8-5c7c2a5e3ce0",
    "b32e6139-3ce0-46cf-99b9-b3276abc93fb",
    "4f0f96fb-9cc4-4a6d-bd3d-9ce8cb247d89",
    "9c444ee8-a86e-4bdb-8f4d-09071bc48442"
  ],
  "assembly:/_pro/scenes/missions/colombia/scene_hippo_rafflesia.entity": [
    "c97620fa-711b-4cf0-97a2-a262f24dccdb",
    "b9321450-f36a-424a-9739-b0c8d7f42d83",
    "909f5200-77df-4ea5-8327-02c775137c14",
    "2bcd53b1-b7dd-40ec-90a6-fe797f6496be",
    "3fbae47b-151d-477f-b9e8-5c7c2a5e3ce0",
    "b32e6139-3ce0-46cf-99b9-b3276abc93fb",
    "4f0f96fb-9cc4-4a6d-bd3d-9ce8cb247d89",
    "9c444ee8-a86e-4bdb-8f4d-09071bc48442"
  ],
  "assembly:/_pro/scenes/missions/colorado_2/_scene_bull.entity": [
    "933b53e8-2a24-4c2e-b621-fae4adb2e8ef",
    "98f0c484-fc8d-4523-a64c-9bab1a9fd101",
    "83d6fd0c-7985-4932-b880-6321c8c4b494",
    "3cc5761a-563a-4431-be7b-10de8a3f7118",
    "41169b77-287f-4f77-9583-0fada78d1e25",
    "a4caccd1-e8d6-44a9-ae44-d3edf5802b7c",
    "7e1d7335-17a4-4f1a-85f1-f1f80dd2a0a5",
    "719d505d-dbac-4da4-a3cb-9c0eee7ce4e9",
    "737686c7-acfc-4ca7-b71e-9fbdfa60900e"
  ],
  "assembly:/_pro/scenes/missions/colorado_2/_scene_mission_bull.entity": [
    "933b53e8-2a24-4c2e-b621-fae4adb2e8ef",
    "98f0c484-fc8d-4523-a64c-9bab1a9fd101",
    "83d6fd0c-7985-4932-b880-6321c8c4b494",
    "3cc5761a-563a-4431-be7b-10de8a3f7118",
    "41169b77-287f-4f77-9583-0fada78d1e25",
    "a4caccd1-e8d6-44a9-ae44-d3edf5802b7c",
    "7e1d7335-17a4-4f1a-85f1-f1f80dd2a0a5",
    "719d505d-dbac-4da4-a3cb-9c0eee7ce4e9",
    "737686c7-acfc-4ca7-b71e-9fbdfa60900e"
  ],
  "assembly:/_pro/scenes/missions/colorado_2/scene_rabies.entity": [],
  "assembly:/_pro/scenes/missions/edgy/mission_fox/scene_fox_basic.entity": [
    "b0190d6a-cb36-4d29-a0f2-2e6cd09b6e61",
    "763a1d99-04cf-4654-a68f-3d9544c95697",
    "57edcd83-5571-491b-8557-03ff5d30cc9c",
    "ba12c19b-25c7-4ef8-ae47-04ca45519ba9",
    "77106766-ba9d-4f54-96c1-32034bf61111",
    "0f67b24e-d6b6-4c18-b655-826ef6644f3f",
    "3157f66c-ebf5-46d9-9612-639984bb458c",
    "acff6beb-8bdf-4745-8496-2ca282f7bda3"
  ],
  "assembly:/_pro/scenes/missions/edgy/mission_fox/scene_fox_contractcreation.entity": [
    "b0190d6a-cb36-4d29-a0f2-2e6cd09b6e61",
    "763a1d99-04cf-4654-a68f-3d9544c95697",
    "57edcd83-5571-491b-8557-03ff5d30cc9c",
    "ba12c19b-25c7-4ef8-ae47-04ca45519ba9",
    "77106766-ba9d-4f54-96c1-32034bf61111",
    "0f67b24e-d6b6-4c18-b655-826ef6644f3f",
    "3157f66c-ebf5-46d9-9612-639984bb458c",
    "acff6beb-8bdf-4745-8496-2ca282f7bda3"
  ],
  "assembly:/_pro/scenes/missions/edgy/mission_fox/scene_fox_cornflower.entity": [
    "b0190d6a-cb36-4d29-a0f2-2e6cd09b6e61",
    "763a1d99-04cf-4654-a68f-3d9544c95697",
    "57edcd83-5571-491b-8557-03ff5d30cc9c",
    "ba12c19b-25c7-4ef8-ae47-04ca45519ba9",
    "77106766-ba9d-4f54-96c1-32034bf61111",
    "0f67b24e-d6b6-4c18-b655-826ef6644f3f",
    "3157f66c-ebf5-46d9-9612-639984bb458c",
    "acff6beb-8bdf-4745-8496-2ca282f7bda3"
  ],
  "assembly:/_pro/scenes/missions/edgy/mission_fox/scene_fox_nightphlox.entity": [
    "57edcd83-5571-491b-8557-03ff5d30cc9c",
    "acff6beb-8bdf-4745-8496-2ca282f7bda3"
  ],
  "assembly:/_pro/scenes/missions/edgy/mission_fox/scene_fox_smilax.entity": [
    "b0190d6a-cb36-4d29-a0f2-2e6cd09b6e61",
    "763a1d99-04cf-4654-a68f-3d9544c95697",
    "57edcd83-5571-491b-8557-03ff5d30cc9c",
    "ba12c19b-25c7-4ef8-ae47-04ca45519ba9",
    "77106766-ba9d-4f54-96c1-32034bf61111",
    "0f67b24e-d6b6-4c18-b655-826ef6644f3f",
    "3157f66c-ebf5-46d9-9612-639984bb458c",
    "acff6beb-8bdf-4745-8496-2ca282f7bda3"
  ],
  "assembly:/_pro/scenes/missions/edgy/mission_fox/scene_fox_smilax_level2.entity": [
    "b0190d6a-cb36-4d29-a0f2-2e6cd09b6e61",
    "763a1d99-04cf-4654-a68f-3d9544c95697",
    "57edcd83-5571-491b-8557-03ff5d30cc9c",
    "ba12c19b-25c7-4ef8-ae47-04ca45519ba9",
    "77106766-ba9d-4f54-96c1-32034bf61111",
    "0f67b24e-d6b6-4c18-b655-826ef6644f3f",
    "3157f66c-ebf5-46d9-9612-639984bb458c",
    "acff6beb-8bdf-4745-8496-2ca282f7bda3"
  ],
  "assembly:/_pro/scenes/missions/edgy/mission_fox/scene_fox_smilax_level3.entity": [
    "b0190d6a-cb36-4d29-a0f2-2e6cd09b6e61",
    "763a1d99-04cf-4654-a68f-3d9544c95697",
    "57edcd83-5571-491b-8557-03ff5d30cc9c",
    "ba12c19b-25c7-4ef8-ae47-04ca45519ba9",
    "77106766-ba9d-4f54-96c1-32034bf61111",
    "0f67b24e-d6b6-4c18-b655-826ef6644f3f",
    "3157f66c-ebf5-46d9-9612-639984bb458c",
    "acff6beb-8bdf-4745-8496-2ca282f7bda3"
  ],
  "assembly:/_pro/scenes/missions/edgy/mission_fox/scene_grasssnake.entity": [
    "b0190d6a-cb36-4d29-a0f2-2e6cd09b6e61",
    "763a1d99-04cf-4654-a68f-3d9544c95697",
    "57edcd83-5571-491b-8557-03ff5d30cc9c",
    "ba12c19b-25c7-4ef8-ae47-04ca45519ba9",
    "77106766-ba9d-4f54-96c1-32034bf61111",
    "0f67b24e-d6b6-4c18-b655-826ef6644f3f",
    "3157f66c-ebf5-46d9-9612-639984bb458c",
    "acff6beb-8bdf-4745-8496-2ca282f7bda3"
  ],
  "assembly:/_pro/scenes/missions/edgy/mission_fox/scene_radler.entity": [
    "b0190d6a-cb36-4d29-a0f2-2e6cd09b6e61",
    "763a1d99-04cf-4654-a68f-3d9544c95697",
    "57edcd83-5571-491b-8557-03ff5d30cc9c",
    "ba12c19b-25c7-4ef8-ae47-04ca45519ba9",
    "77106766-ba9d-4f54-96c1-32034bf61111",
    "0f67b24e-d6b6-4c18-b655-826ef6644f3f",
    "3157f66c-ebf5-46d9-9612-639984bb458c",
    "acff6beb-8bdf-4745-8496-2ca282f7bda3"
  ],
  "assembly:/_pro/scenes/missions/elegant/scene_llama.entity": [
    "c9e4c63f-d969-43db-b46f-a8c56cc80c51",
    "23cecaad-4fba-4bc4-b2e5-40a69b02b40d",
    "1eaa28f7-8ba7-4f9e-b02f-027ae8dfb4ce",
    "20a8c062-5ba1-4754-a510-10295f7545c6",
    "339b9416-7153-4800-8ca4-99d45119d282",
    "c3296484-2ea0-4a76-8f9b-858830aedf81",
    "c85a1d85-919e-452c-b457-437c96a0493a",
    "8c1fa53f-b979-4e68-bb81-492c32c5a877",
    "b9660a54-5d89-49f1-8141-8cc2307bad41",
    "80133265-3e70-4953-ac83-7006b795d013"
  ],
  "assembly:/_pro/scenes/missions/elegant/scene_llama_jacaranda.entity": [
    "c9e4c63f-d969-43db-b46f-a8c56cc80c51",
    "23cecaad-4fba-4bc4-b2e5-40a69b02b40d",
    "1eaa28f7-8ba7-4f9e-b02f-027ae8dfb4ce",
    "20a8c062-5ba1-4754-a510-10295f7545c6",
    "339b9416-7153-4800-8ca4-99d45119d282",
    "c3296484-2ea0-4a76-8f9b-858830aedf81",
    "c85a1d85-919e-452c-b457-437c96a0493a",
    "8c1fa53f-b979-4e68-bb81-492c32c5a877",
    "b9660a54-5d89-49f1-8141-8cc2307bad41",
    "80133265-3e70-4953-ac83-7006b795d013"
  ],
  "assembly:/_pro/scenes/missions/elegant/scene_whitedryas.entity": [
    "c9e4c63f-d969-43db-b46f-a8c56cc80c51",
    "23cecaad-4fba-4bc4-b2e5-40a69b02b40d",
    "1eaa28f7-8ba7-4f9e-b02f-027ae8dfb4ce",
    "20a8c062-5ba1-4754-a510-10295f7545c6",
    "339b9416-7153-4800-8ca4-99d45119d282",
    "c3296484-2ea0-4a76-8f9b-858830aedf81",
    "c85a1d85-919e-452c-b457-437c96a0493a",
    "8c1fa53f-b979-4e68-bb81-492c32c5a877",
    "b9660a54-5d89-49f1-8141-8cc2307bad41",
    "80133265-3e70-4953-ac83-7006b795d013"
  ],
  "assembly:/_pro/scenes/missions/elegant/scene_whitedryas_level2.entity": [
    "c9e4c63f-d969-43db-b46f-a8c56cc80c51",
    "23cecaad-4fba-4bc4-b2e5-40a69b02b40d",
    "1eaa28f7-8ba7-4f9e-b02f-027ae8dfb4ce",
    "20a8c062-5ba1-4754-a510-10295f7545c6",
    "339b9416-7153-4800-8ca4-99d45119d282",
    "c3296484-2ea0-4a76-8f9b-858830aedf81",
    "c85a1d85-919e-452c-b457-437c96a0493a",
    "8c1fa53f-b979-4e68-bb81-492c32c5a877",
    "b9660a54-5d89-49f1-8141-8cc2307bad41",
    "80133265-3e70-4953-ac83-7006b795d013"
  ],
  "assembly:/_pro/scenes/missions/elegant/scene_whitedryas_level3.entity": [
    "c9e4c63f-d969-43db-b46f-a8c56cc80c51",
    "23cecaad-4fba-4bc4-b2e5-40a69b02b40d",
    "1eaa28f7-8ba7-4f9e-b02f-027ae8dfb4ce",
    "20a8c062-5ba1-4754-a510-10295f7545c6",
    "339b9416-7153-4800-8ca4-99d45119d282",
    "c3296484-2ea0-4a76-8f9b-858830aedf81",
    "c85a1d85-919e-452c-b457-437c96a0493a",
    "8c1fa53f-b979-4e68-bb81-492c32c5a877",
    "b9660a54-5d89-49f1-8141-8cc2307bad41",
    "80133265-3e70-4953-ac83-7006b795d013"
  ],
  "assembly:/_pro/scenes/missions/golden/mission_gecko/scene_gecko_basic.entity": [
    "0e8b5215-dad9-4a73-b549-8c7e3d27d604",
    "d4b6f7eb-6c48-4605-95de-7f9695be2ed1",
    "9c2005f3-9368-45e1-8884-baefe63b5fc0",
    "4c7250fa-f7eb-4ade-9dc7-18a9ae998992",
    "18dee391-ac91-48c4-b864-6875da29e49b",
    "d3388229-d256-499a-8039-d3715e5c01d5",
    "1a7f20ee-909a-4fa5-bba0-b8068ac05241"
  ],
  "assembly:/_pro/scenes/missions/golden/mission_gecko/scene_gecko_desertrose.entity": [
    "0e8b5215-dad9-4a73-b549-8c7e3d27d604",
    "d4b6f7eb-6c48-4605-95de-7f9695be2ed1",
    "9c2005f3-9368-45e1-8884-baefe63b5fc0",
    "4c7250fa-f7eb-4ade-9dc7-18a9ae998992",
    "18dee391-ac91-48c4-b864-6875da29e49b",
    "d3388229-d256-499a-8039-d3715e5c01d5",
    "1a7f20ee-909a-4fa5-bba0-b8068ac05241"
  ],
  "assembly:/_pro/scenes/missions/golden/mission_gecko/scene_gecko_lunaria.entity": [
    "0e8b5215-dad9-4a73-b549-8c7e3d27d604",
    "d4b6f7eb-6c48-4605-95de-7f9695be2ed1",
    "9c2005f3-9368-45e1-8884-baefe63b5fc0",
    "4c7250fa-f7eb-4ade-9dc7-18a9ae998992",
    "18dee391-ac91-48c4-b864-6875da29e49b",
    "d3388229-d256-499a-8039-d3715e5c01d5",
    "1a7f20ee-909a-4fa5-bba0-b8068ac05241"
  ],
  "assembly:/_pro/scenes/missions/golden/mission_gecko/scene_gecko_sinstest.entity": [
    "0e8b5215-dad9-4a73-b549-8c7e3d27d604",
    "d4b6f7eb-6c48-4605-95de-7f9695be2ed1",
    "9c2005f3-9368-45e1-8884-baefe63b5fc0",
    "4c7250fa-f7eb-4ade-9dc7-18a9ae998992",
    "18dee391-ac91-48c4-b864-6875da29e49b",
    "d3388229-d256-499a-8039-d3715e5c01d5",
    "1a7f20ee-909a-4fa5-bba0-b8068ac05241"
  ],
  "assembly:/_pro/scenes/missions/greedy/mission_raccoon/scene_raccoon_basic.entity": [
    "384c9fcb-6f7f-41b9-9029-cc6b3f583356",
    "3c597442-432c-4cb7-9f60-081e03a7985d",
    "718e7ab7-c03f-4eff-9f5f-004d95216004",
    "dd247e0b-ba08-4525-8507-341e759b80b0",
    "39d7c531-8d53-4054-b393-88ff0b6153e2",
    "d7a26c33-c5d5-4e47-a5e5-b120d8c779cf"
  ],
  "assembly:/_pro/scenes/missions/greedy/mission_raccoon/scene_raccoon_basic_dandelion.entity": [
    "384c9fcb-6f7f-41b9-9029-cc6b3f583356",
    "3c597442-432c-4cb7-9f60-081e03a7985d",
    "718e7ab7-c03f-4eff-9f5f-004d95216004",
    "dd247e0b-ba08-4525-8507-341e759b80b0",
    "39d7c531-8d53-4054-b393-88ff0b6153e2",
    "d7a26c33-c5d5-4e47-a5e5-b120d8c779cf"
  ],
  "assembly:/_pro/scenes/missions/hokkaido/_scene_flu.entity": [
    "1603667b-c5ed-4b06-9e42-0dd86bc548ab",
    "01e4187e-082e-4f3a-acae-9f9786327c78",
    "d28c40f2-3f66-43fe-932c-5f0119e79256",
    "3864fe0a-ef89-4091-a644-b08321eb44f2",
    "73d4bcd4-ec9f-4a6c-ae2d-1248109eadc3",
    "b067d1a3-78a2-48f6-af32-a1e6e5795156",
    "17b6cdbb-fbe0-4623-a40f-ff19920d508b"
  ],
  "assembly:/_pro/scenes/missions/hokkaido/_scene_mission_snowcrane.entity": [
    "1603667b-c5ed-4b06-9e42-0dd86bc548ab",
    "01e4187e-082e-4f3a-acae-9f9786327c78",
    "d28c40f2-3f66-43fe-932c-5f0119e79256",
    "3864fe0a-ef89-4091-a644-b08321eb44f2",
    "73d4bcd4-ec9f-4a6c-ae2d-1248109eadc3",
    "b067d1a3-78a2-48f6-af32-a1e6e5795156",
    "17b6cdbb-fbe0-4623-a40f-ff19920d508b"
  ],
  "assembly:/_pro/scenes/missions/hokkaido/_scene_snowcrane.entity": [
    "1603667b-c5ed-4b06-9e42-0dd86bc548ab",
    "01e4187e-082e-4f3a-acae-9f9786327c78",
    "d28c40f2-3f66-43fe-932c-5f0119e79256",
    "3864fe0a-ef89-4091-a644-b08321eb44f2",
    "73d4bcd4-ec9f-4a6c-ae2d-1248109eadc3",
    "b067d1a3-78a2-48f6-af32-a1e6e5795156",
    "17b6cdbb-fbe0-4623-a40f-ff19920d508b"
  ],
  "assembly:/_pro/scenes/missions/hokkaido/_scene_snowcrane_tumbleweed.entity": [
    "1603667b-c5ed-4b06-9e42-0dd86bc548ab",
    "01e4187e-082e-4f3a-acae-9f9786327c78",
    "d28c40f2-3f66-43fe-932c-5f0119e79256",
    "3864fe0a-ef89-4091-a644-b08321eb44f2",
    "73d4bcd4-ec9f-4a6c-ae2d-1248109eadc3",
    "b067d1a3-78a2-48f6-af32-a1e6e5795156",
    "17b6cdbb-fbe0-4623-a40f-ff19920d508b"
  ],
  "assembly:/_pro/scenes/missions/hokkaido/scene_mamushi.entity": [
    "1603667b-c5ed-4b06-9e42-0dd86bc548ab",
    "01e4187e-082e-4f3a-acae-9f9786327c78",
    "d28c40f2-3f66-43fe-932c-5f0119e79256",
    "3864fe0a-ef89-4091-a644-b08321eb44f2",
    "17b6cdbb-fbe0-4623-a40f-ff19920d508b",
    "b067d1a3-78a2-48f6-af32-a1e6e5795156",
    "73d4bcd4-ec9f-4a6c-ae2d-1248109eadc3"
  ],
  "assembly:/_pro/scenes/missions/marrakesh/_scene_mission_python.entity": [
    "9c33f44b-71ca-46a4-aaa3-18d18e0c4335"
  ],
  "assembly:/_pro/scenes/missions/marrakesh/_scene_mission_spider.entity": [
    "c086f5dc-cc8f-4a29-84c6-ca56d85a57a2",
    "83974eb6-238b-48ae-8234-0d1743b16c2d",
    "b9f161ce-2f62-47af-a29a-cd090762f994",
    "e034ac42-fff1-438c-9a3b-fc2ad6c4d7ce",
    "5e488722-94c8-40e6-be9f-4b966e3d8920",
    "a8296d9e-aedc-4f94-be59-f80baf81e4f4",
    "e870fd93-c11e-4155-803e-1d0a6fb0e0d8",
    "10b21627-084b-49fd-a10f-e5f35aae5c14",
    "581ff3b3-88aa-464f-928b-f9caa7ecb1db"
  ],
  "assembly:/_pro/scenes/missions/marrakesh/_scene_python.entity": [
    "9c33f44b-71ca-46a4-aaa3-18d18e0c4335"
  ],
  "assembly:/_pro/scenes/missions/marrakesh/_scene_python_hellebore.entity": [
    "9c33f44b-71ca-46a4-aaa3-18d18e0c4335"
  ],
  "assembly:/_pro/scenes/missions/marrakesh/_scene_spider.entity": [
    "c086f5dc-cc8f-4a29-84c6-ca56d85a57a2",
    "83974eb6-238b-48ae-8234-0d1743b16c2d",
    "b9f161ce-2f62-47af-a29a-cd090762f994",
    "e034ac42-fff1-438c-9a3b-fc2ad6c4d7ce",
    "5e488722-94c8-40e6-be9f-4b966e3d8920",
    "a8296d9e-aedc-4f94-be59-f80baf81e4f4",
    "e870fd93-c11e-4155-803e-1d0a6fb0e0d8",
    "10b21627-084b-49fd-a10f-e5f35aae5c14",
    "581ff3b3-88aa-464f-928b-f9caa7ecb1db"
  ],
  "assembly:/_pro/scenes/missions/miami/scene_cottonmouth.entity": [
    "b9a768d4-4dd6-4452-aa3e-d50932748e66",
    "b92d566e-f342-41a4-889c-d0fe6e6b464d",
    "61d55336-55c3-4edf-b171-9a3f40fff294",
    "715ff1a1-6f2c-4c0b-8faf-6f46a3bd22d0",
    "50182723-cfe6-436b-95c0-104c36d50c35",
    "05db2ebb-e749-4272-b114-8d693f631b1d",
    "28b03709-d1f0-4388-b207-f03611eafb64",
    "0876ab17-dacd-4166-8785-c255c8442e0e",
    "039ae678-b062-4781-b874-0a0900c9fbd3"
  ],
  "assembly:/_pro/scenes/missions/miami/scene_et_sambuca.entity": [
    "b9a768d4-4dd6-4452-aa3e-d50932748e66",
    "b92d566e-f342-41a4-889c-d0fe6e6b464d",
    "61d55336-55c3-4edf-b171-9a3f40fff294",
    "b0de5e15-f92e-4d5c-ad01-ab2afbeae0ef",
    "715ff1a1-6f2c-4c0b-8faf-6f46a3bd22d0",
    "50182723-cfe6-436b-95c0-104c36d50c35",
    "05db2ebb-e749-4272-b114-8d693f631b1d",
    "28b03709-d1f0-4388-b207-f03611eafb64",
    "0876ab17-dacd-4166-8785-c255c8442e0e",
    "039ae678-b062-4781-b874-0a0900c9fbd3"
  ],
  "assembly:/_pro/scenes/missions/miami/scene_flamingo.entity": [
    "b9a768d4-4dd6-4452-aa3e-d50932748e66",
    "b92d566e-f342-41a4-889c-d0fe6e6b464d",
    "61d55336-55c3-4edf-b171-9a3f40fff294",
    "b0de5e15-f92e-4d5c-ad01-ab2afbeae0ef",
    "715ff1a1-6f2c-4c0b-8faf-6f46a3bd22d0",
    "50182723-cfe6-436b-95c0-104c36d50c35",
    "05db2ebb-e749-4272-b114-8d693f631b1d",
    "28b03709-d1f0-4388-b207-f03611eafb64",
    "0876ab17-dacd-4166-8785-c255c8442e0e",
    "039ae678-b062-4781-b874-0a0900c9fbd3"
  ],
  "assembly:/_pro/scenes/missions/mumbai/scene_kingcobra.entity": [
    "5f62c1fa-fdbb-40e5-af7e-893c29925e88",
    "48b97b1b-b9c8-4ec6-b1ef-44e2cbc35ad0",
    "bea3660b-9abf-4d36-950d-7ef6542f33b6",
    "42863362-d541-4075-9e1d-ff05f33aa024",
    "c26f0079-ce8b-4c74-bacf-51d254abcb63",
    "658ed5d7-a164-409f-b0d2-d40325f5cc33",
    "15cdfc12-103f-48a5-90ea-66e682d9a7d6",
    "0249e948-aa0e-4aad-b2d9-8f3d2ee0164d",
    "eccf5c40-6654-4fb4-a22b-4d711ca905f6",
    "52218f46-9533-4061-9d03-5635eac533d8",
    "a481efd8-b5af-47a4-b04a-caf4b1f79a98",
    "94d6dd4b-b816-4da1-8ce2-edead1d53e13",
    "445080ab-3784-4d68-a80b-9686dbbed0f6",
    "3ecb363f-7a3f-4ed7-a7f7-17db16389264",
    "dea2f652-c1ef-48be-b476-a7de407fef82",
    "44d28886-2f52-4e8e-b00e-7db5910e2de3"
  ],
  "assembly:/_pro/scenes/missions/mumbai/scene_mongoose.entity": [
    "fbc4129a-db85-4c9e-9a4e-c17dedf8f514",
    "5f62c1fa-fdbb-40e5-af7e-893c29925e88",
    "48b97b1b-b9c8-4ec6-b1ef-44e2cbc35ad0",
    "bea3660b-9abf-4d36-950d-7ef6542f33b6",
    "42863362-d541-4075-9e1d-ff05f33aa024",
    "c26f0079-ce8b-4c74-bacf-51d254abcb63",
    "658ed5d7-a164-409f-b0d2-d40325f5cc33",
    "15cdfc12-103f-48a5-90ea-66e682d9a7d6",
    "0249e948-aa0e-4aad-b2d9-8f3d2ee0164d",
    "eccf5c40-6654-4fb4-a22b-4d711ca905f6",
    "f197d8a6-dcad-4667-a3ca-066f42ae6c02",
    "52218f46-9533-4061-9d03-5635eac533d8",
    "05911e70-138b-4bc2-b225-74d554f51a0b",
    "a481efd8-b5af-47a4-b04a-caf4b1f79a98",
    "94d6dd4b-b816-4da1-8ce2-edead1d53e13",
    "445080ab-3784-4d68-a80b-9686dbbed0f6",
    "3ecb363f-7a3f-4ed7-a7f7-17db16389264",
    "b68405f7-cff1-409c-96b9-572b3eea0b0b",
    "dea2f652-c1ef-48be-b476-a7de407fef82",
    "44d28886-2f52-4e8e-b00e-7db5910e2de3"
  ],
  "assembly:/_pro/scenes/missions/opulent/mission_stingray/scene_stingray_arcticthyme.entity": [
    "b8e94f3c-ed32-45f8-b68c-68c6b63df60b",
    "dc078c0e-0cd2-498f-99be-de1363c100f2",
    "550c7e89-4469-4b7d-a581-4d6482d047cd",
    "345de0c9-ef61-439b-89a9-e232465f87f2",
    "1e4bd848-96d1-43f4-8a12-b88bfeca944f",
    "2c81f084-e99c-4f93-a836-6822a9df66b6",
    "58f9282b-60e1-4bb8-86ab-c13876512e11",
    "0ec9de85-8a0d-4b9a-8407-4066e3bada68",
    "aec8cb7d-4f56-4650-9a19-d4b23bdaf479"
  ],
  "assembly:/_pro/scenes/missions/opulent/mission_stingray/scene_stingray_basic.entity": [
    "b8e94f3c-ed32-45f8-b68c-68c6b63df60b",
    "dc078c0e-0cd2-498f-99be-de1363c100f2",
    "550c7e89-4469-4b7d-a581-4d6482d047cd",
    "345de0c9-ef61-439b-89a9-e232465f87f2",
    "1e4bd848-96d1-43f4-8a12-b88bfeca944f",
    "2c81f084-e99c-4f93-a836-6822a9df66b6",
    "58f9282b-60e1-4bb8-86ab-c13876512e11",
    "0ec9de85-8a0d-4b9a-8407-4066e3bada68",
    "aec8cb7d-4f56-4650-9a19-d4b23bdaf479"
  ],
  "assembly:/_pro/scenes/missions/paris/_scene_fashionshowhit_01.entity": [
    "e1f3a43e-2c27-438f-a733-47f39208ca34",
    "52c22399-fe49-48d4-bc5c-bf1726616444",
    "244e6667-4d99-40d1-a766-6324d133b669",
    "ca81b636-d61d-454c-83de-d998214f5470",
    "6120437a-d943-431f-90c1-a7ccca663a07",
    "37495d13-a49d-404b-a4ba-6f8c39f20feb",
    "25ff09ba-134e-4292-901b-a43efc73c2ae"
  ],
  "assembly:/_pro/scenes/missions/paris/_scene_fashionshowhit_amd.entity": [
    "e1f3a43e-2c27-438f-a733-47f39208ca34",
    "52c22399-fe49-48d4-bc5c-bf1726616444",
    "244e6667-4d99-40d1-a766-6324d133b669",
    "ca81b636-d61d-454c-83de-d998214f5470",
    "6120437a-d943-431f-90c1-a7ccca663a07",
    "37495d13-a49d-404b-a4ba-6f8c39f20feb",
    "25ff09ba-134e-4292-901b-a43efc73c2ae"
  ],
  "assembly:/_pro/scenes/missions/paris/_scene_paris.entity": [
    "e1f3a43e-2c27-438f-a733-47f39208ca34",
    "52c22399-fe49-48d4-bc5c-bf1726616444",
    "244e6667-4d99-40d1-a766-6324d133b669",
    "ca81b636-d61d-454c-83de-d998214f5470",
    "6120437a-d943-431f-90c1-a7ccca663a07",
    "37495d13-a49d-404b-a4ba-6f8c39f20feb",
    "25ff09ba-134e-4292-901b-a43efc73c2ae"
  ],
  "assembly:/_pro/scenes/missions/paris/_scene_paris_torenia.entity": [],
  "assembly:/_pro/scenes/missions/paris/_scene_tequilasunrise_01.entity": [
    "2098cb71-d123-44f8-b47e-4b1f28c23d00",
    "e1f3a43e-2c27-438f-a733-47f39208ca34",
    "427116df-b4be-4bb6-b27e-664edeeb3cc9",
    "4f44f803-ed4a-4188-ae3c-23478629b499",
    "37495d13-a49d-404b-a4ba-6f8c39f20feb",
    "6120437a-d943-431f-90c1-a7ccca663a07",
    "ca81b636-d61d-454c-83de-d998214f5470",
    "25ff09ba-134e-4292-901b-a43efc73c2ae"
  ],
  "assembly:/_pro/scenes/missions/paris/_scene_tutorial_contractcreationparis.entity": [
    "e1f3a43e-2c27-438f-a733-47f39208ca34",
    "52c22399-fe49-48d4-bc5c-bf1726616444",
    "244e6667-4d99-40d1-a766-6324d133b669",
    "ca81b636-d61d-454c-83de-d998214f5470",
    "6120437a-d943-431f-90c1-a7ccca663a07",
    "37495d13-a49d-404b-a4ba-6f8c39f20feb",
    "25ff09ba-134e-4292-901b-a43efc73c2ae"
  ],
  "assembly:/_pro/scenes/missions/paris/_scene_whiterussian_01.entity": [
    "2098cb71-d123-44f8-b47e-4b1f28c23d00",
    "e1f3a43e-2c27-438f-a733-47f39208ca34",
    "427116df-b4be-4bb6-b27e-664edeeb3cc9",
    "4f44f803-ed4a-4188-ae3c-23478629b499",
    "37495d13-a49d-404b-a4ba-6f8c39f20feb",
    "6120437a-d943-431f-90c1-a7ccca663a07",
    "ca81b636-d61d-454c-83de-d998214f5470",
    "25ff09ba-134e-4292-901b-a43efc73c2ae"
  ],
  "assembly:/_pro/scenes/missions/sheep/scene_adonis.entity": [
    "418b0f5c-3e74-4e06-823c-0352ddf2cf4f",
    "d6209b7a-087e-47dd-bf2c-75895e976cfa"
  ],
  "assembly:/_pro/scenes/missions/sheep/scene_opuntia.entity": [
    "418b0f5c-3e74-4e06-823c-0352ddf2cf4f",
    "d6209b7a-087e-47dd-bf2c-75895e976cfa"
  ],
  "assembly:/_pro/scenes/missions/sheep/scene_sheep.entity": [
    "418b0f5c-3e74-4e06-823c-0352ddf2cf4f",
    "d6209b7a-087e-47dd-bf2c-75895e976cfa"
  ],
  "assembly:/_pro/scenes/missions/skunk/mission_grasshopper/scene_grasshopper.entity": [
    "1e187d04-417a-4a53-a6a3-4de0340f1141",
    "1022e27c-0f72-4dec-86e5-e36d3ff5d209",
    "00b6405a-2c67-4731-bf7a-0f583c4006ac",
    "712102f0-3983-4112-ac94-75892514af22",
    "bebf4a64-c4f0-44ab-aeeb-ce3870c3f030",
    "109b98f5-8191-45f8-adae-14abba8b65e2",
    "ac178b2f-85b6-4e64-aa25-2966162a1cf6",
    "254b0d91-6864-475a-b119-aee888236c1f",
    "0cc4518f-4ed2-46b4-90b7-7112f6798755",
    "57522561-5fc9-4505-b133-0f7dc37c6d85",
    "da1e1666-d60b-4b16-8da3-c3f25f5d9dfb",
    "90eca4f1-85ec-4013-a819-39643a90bb44",
    "80650408-5193-43e8-a0b7-498548f850f1"
  ],
  "assembly:/_pro/scenes/missions/skunk/scene_gartersnake.entity": [
    "1e187d04-417a-4a53-a6a3-4de0340f1141",
    "1022e27c-0f72-4dec-86e5-e36d3ff5d209",
    "00b6405a-2c67-4731-bf7a-0f583c4006ac",
    "712102f0-3983-4112-ac94-75892514af22",
    "bebf4a64-c4f0-44ab-aeeb-ce3870c3f030",
    "109b98f5-8191-45f8-adae-14abba8b65e2",
    "254b0d91-6864-475a-b119-aee888236c1f",
    "0cc4518f-4ed2-46b4-90b7-7112f6798755",
    "57522561-5fc9-4505-b133-0f7dc37c6d85",
    "da1e1666-d60b-4b16-8da3-c3f25f5d9dfb",
    "90eca4f1-85ec-4013-a819-39643a90bb44"
  ],
  "assembly:/_pro/scenes/missions/skunk/scene_skunk.entity": [
    "1e187d04-417a-4a53-a6a3-4de0340f1141",
    "1022e27c-0f72-4dec-86e5-e36d3ff5d209",
    "00b6405a-2c67-4731-bf7a-0f583c4006ac",
    "712102f0-3983-4112-ac94-75892514af22",
    "bebf4a64-c4f0-44ab-aeeb-ce3870c3f030",
    "109b98f5-8191-45f8-adae-14abba8b65e2",
    "ac178b2f-85b6-4e64-aa25-2966162a1cf6",
    "254b0d91-6864-475a-b119-aee888236c1f",
    "0cc4518f-4ed2-46b4-90b7-7112f6798755",
    "57522561-5fc9-4505-b133-0f7dc37c6d85",
    "da1e1666-d60b-4b16-8da3-c3f25f5d9dfb",
    "90eca4f1-85ec-4013-a819-39643a90bb44",
    "80650408-5193-43e8-a0b7-498548f850f1"
  ],
  "assembly:/_pro/scenes/missions/theark/_scene_magpie_lotus.entity": [],
  "assembly:/_pro/scenes/missions/theark/_scene_magpie_pansy.entity": [
    "55f8958a-032e-4c23-bf54-fb99f83f3116",
    "40c3c9b8-f2dd-4058-928e-c1539c2bf84e",
    "3a7d3e47-0aec-4fed-be2b-59f19cd52110",
    "8c926bc7-c1d6-4725-bc17-707d3b888a3f",
    "6f3a2568-7252-41c7-8317-c15dc633e509",
    "0acb0f9c-a9f9-49f3-9534-379aca274a7c",
    "24323d47-af82-4a0b-8e0b-3066117f83e0",
    "31272eab-7903-4516-8ab6-359a7e768ca1"
  ],
  "assembly:/_pro/scenes/missions/theark/scene_magpie.entity": [
    "55f8958a-032e-4c23-bf54-fb99f83f3116",
    "40c3c9b8-f2dd-4058-928e-c1539c2bf84e",
    "3a7d3e47-0aec-4fed-be2b-59f19cd52110",
    "8c926bc7-c1d6-4725-bc17-707d3b888a3f",
    "6f3a2568-7252-41c7-8317-c15dc633e509",
    "0acb0f9c-a9f9-49f3-9534-379aca274a7c",
    "24323d47-af82-4a0b-8e0b-3066117f83e0",
    "31272eab-7903-4516-8ab6-359a7e768ca1"
  ],
  "assembly:/_pro/scenes/missions/thefacility/_scene_mission_polarbear_002_contracts_creation_tutorial.entity": [],
  "assembly:/_pro/scenes/missions/thefacility/_scene_mission_polarbear_002_for_escalation_.entity": [],
  "assembly:/_pro/scenes/missions/thefacility/_scene_mission_polarbear_module_002.entity": [],
  "assembly:/_pro/scenes/missions/thefacility/_scene_mission_polarbear_module_002_b.entity": [],
  "assembly:/_pro/scenes/missions/thefacility/_scene_mission_polarbear_module_005.entity": [],
  "assembly:/_pro/scenes/missions/thefacility/_scene_polarbear_005.entity": [],
  "assembly:/_pro/scenes/missions/trapped/scene_bellflower.entity": [],
  "assembly:/_pro/scenes/missions/trapped/scene_wolverine.entity": [],
  "assembly:/_pro/scenes/missions/wet/scene_magnolia.entity": [
    "acca901a-c33e-4462-b422-8c3bd81f4efa",
    "ff66b29c-c3c2-4aec-8b5c-c4e780f42a8a",
    "50be49a2-c366-443d-bdaa-6de2e11eefbe",
    "20701325-000b-408a-99ca-17c9d87a221b",
    "e1658358-1b89-4dc2-bb42-3f046faf5813",
    "2bc67e36-180c-41b6-bdf4-01b91d53cf29",
    "7b719d9b-13cd-48c7-bbff-c3809d01d39b",
    "c3b730f6-e402-4a2f-8fc2-4f01b30ced0f",
    "f0cd0184-8d7c-4b5f-8c5e-94177f8bd9ff",
    "5e0df81c-e0a8-4061-a9da-d298e9bd8972"
  ],
  "assembly:/_pro/scenes/missions/wet/scene_rat_basic.entity": [
    "acca901a-c33e-4462-b422-8c3bd81f4efa",
    "ff66b29c-c3c2-4aec-8b5c-c4e780f42a8a",
    "50be49a2-c366-443d-bdaa-6de2e11eefbe",
    "20701325-000b-408a-99ca-17c9d87a221b",
    "e1658358-1b89-4dc2-bb42-3f046faf5813",
    "2bc67e36-180c-41b6-bdf4-01b91d53cf29",
    "7b719d9b-13cd-48c7-bbff-c3809d01d39b",
    "c3b730f6-e402-4a2f-8fc2-4f01b30ced0f",
    "f0cd0184-8d7c-4b5f-8c5e-94177f8bd9ff",
    "5e0df81c-e0a8-4061-a9da-d298e9bd8972"
  ]
}